…
all_genra_data_results |>
  group_by(no_similars) |>
  tally() |>
  ggplot(aes(x = no_similars, y = n)) +
  geom_col()
```

## Conclusion from our GenRA, overall analysis:
A number of compounds experience really poor predictions and we loose at least 2253 compounds for which no similars can be found, based on the 0.75 cutoff for similarity. There were also 1113 compounds that had only 1 similar, so basically we cannot perform a read across on those as well. Having only 2 similars is also very limit in terms of having data for the target, so we could consider those lost for the analysis as well. That leaves about half of the short of 7000 chemicals that we can have a prediction for.  

```
# A tibble: 47 × 2   
   no_similars     n
 1           0  2254
 2           1  1113
 3           2   702
 4           3   498
 5           4   415
 6           5   286
 7           6   266
 8           7   245
 9           8   205
10           9   159
# … with 37 more rows# ℹ Use `print(n = ...)` to see more rows
```
…
